14-03-2020 22:49:44 	String was not recognized as a valid DateTime.
14-03-2020 22:49:44 	String was not recognized as a valid DateTime.
14-03-2020 22:49:44 	String was not recognized as a valid DateTime.
14-03-2020 22:49:44 	String was not recognized as a valid DateTime.
14-03-2020 22:49:44 	String was not recognized as a valid DateTime.
